{
    "id": 139734076795920, 
    "scene_width": 64000, 
    "scene_height": 64000, 
    "nodes": [
        {
            "id": 139733942409424, 
            "title": "String", 
            "pos_x": 950.5473632812494, 
            "pos_y": -638.8979492187502, 
            "inputs": [], 
            "outputs": [
                {
                    "id": 139733942462288, 
                    "index": 0, 
                    "multi_edges": true, 
                    "position": 5, 
                    "socket_type": 3
                }, 
                {
                    "id": 139733942462352, 
                    "index": 1, 
                    "multi_edges": true, 
                    "position": 8, 
                    "socket_type": 11
                }
            ], 
            "content": {
                "value": "     RRRRR      "
            }, 
            "op_code": 4
        }, 
        {
            "id": 139733942463440, 
            "title": "String", 
            "pos_x": 949.0473632812494, 
            "pos_y": -577.8979492187502, 
            "inputs": [], 
            "outputs": [
                {
                    "id": 139733942463568, 
                    "index": 0, 
                    "multi_edges": true, 
                    "position": 5, 
                    "socket_type": 3
                }, 
                {
                    "id": 139733942463632, 
                    "index": 1, 
                    "multi_edges": true, 
                    "position": 8, 
                    "socket_type": 11
                }
            ], 
            "content": {
                "value": "    RRRRRRRRR   "
            }, 
            "op_code": 4
        }, 
        {
            "id": 139733942554704, 
            "title": "String", 
            "pos_x": 949.2973632812494, 
            "pos_y": -515.3979492187502, 
            "inputs": [], 
            "outputs": [
                {
                    "id": 139733942554832, 
                    "index": 0, 
                    "multi_edges": true, 
                    "position": 5, 
                    "socket_type": 3
                }, 
                {
                    "id": 139733942554896, 
                    "index": 1, 
                    "multi_edges": true, 
                    "position": 8, 
                    "socket_type": 11
                }
            ], 
            "content": {
                "value": "    HHH--0-     "
            }, 
            "op_code": 4
        }, 
        {
            "id": 139733942554768, 
            "title": "String", 
            "pos_x": 947.5473632812494, 
            "pos_y": -453.6479492187502, 
            "inputs": [], 
            "outputs": [
                {
                    "id": 139733942555024, 
                    "index": 0, 
                    "multi_edges": true, 
                    "position": 5, 
                    "socket_type": 3
                }, 
                {
                    "id": 139733942555088, 
                    "index": 1, 
                    "multi_edges": true, 
                    "position": 8, 
                    "socket_type": 11
                }
            ], 
            "content": {
                "value": "   H-H---0---   "
            }, 
            "op_code": 4
        }, 
        {
            "id": 139733942554960, 
            "title": "String", 
            "pos_x": 942.5473632812494, 
            "pos_y": -393.8979492187502, 
            "inputs": [], 
            "outputs": [
                {
                    "id": 139733942555216, 
                    "index": 0, 
                    "multi_edges": true, 
                    "position": 5, 
                    "socket_type": 3
                }, 
                {
                    "id": 139733942555280, 
                    "index": 1, 
                    "multi_edges": true, 
                    "position": 8, 
                    "socket_type": 11
                }
            ], 
            "content": {
                "value": "   H-HH---0---- "
            }, 
            "op_code": 4
        }, 
        {
            "id": 139733942555152, 
            "title": "String", 
            "pos_x": 939.2973632812494, 
            "pos_y": -327.64794921875, 
            "inputs": [], 
            "outputs": [
                {
                    "id": 139733942555408, 
                    "index": 0, 
                    "multi_edges": true, 
                    "position": 5, 
                    "socket_type": 3
                }, 
                {
                    "id": 139733942555472, 
                    "index": 1, 
                    "multi_edges": true, 
                    "position": 8, 
                    "socket_type": 11
                }
            ], 
            "content": {
                "value": "   HH----00000  "
            }, 
            "op_code": 4
        }, 
        {
            "id": 139733942555344, 
            "title": "String", 
            "pos_x": 940.2973632812494, 
            "pos_y": -262.39794921875, 
            "inputs": [], 
            "outputs": [
                {
                    "id": 139733942555600, 
                    "index": 0, 
                    "multi_edges": true, 
                    "position": 5, 
                    "socket_type": 3
                }, 
                {
                    "id": 139733942555664, 
                    "index": 1, 
                    "multi_edges": true, 
                    "position": 8, 
                    "socket_type": 11
                }
            ], 
            "content": {
                "value": "     --------   "
            }, 
            "op_code": 4
        }, 
        {
            "id": 139733942555536, 
            "title": "String", 
            "pos_x": 1268.8754882812495, 
            "pos_y": -246.47607421875, 
            "inputs": [], 
            "outputs": [
                {
                    "id": 139733942555792, 
                    "index": 0, 
                    "multi_edges": true, 
                    "position": 5, 
                    "socket_type": 3
                }, 
                {
                    "id": 139733942555856, 
                    "index": 1, 
                    "multi_edges": true, 
                    "position": 8, 
                    "socket_type": 11
                }
            ], 
            "content": {
                "value": "  RRRRBBRRR     "
            }, 
            "op_code": 4
        }, 
        {
            "id": 139733942555728, 
            "title": "String", 
            "pos_x": 1267.3754882812495, 
            "pos_y": -186.72607421875, 
            "inputs": [], 
            "outputs": [
                {
                    "id": 139733942555984, 
                    "index": 0, 
                    "multi_edges": true, 
                    "position": 5, 
                    "socket_type": 3
                }, 
                {
                    "id": 139733942556048, 
                    "index": 1, 
                    "multi_edges": true, 
                    "position": 8, 
                    "socket_type": 11
                }
            ], 
            "content": {
                "value": "--RRRRBBBRRRR---"
            }, 
            "op_code": 4
        }, 
        {
            "id": 139733942556880, 
            "title": "String", 
            "pos_x": 1266.1254882812495, 
            "pos_y": -124.22607421875, 
            "inputs": [], 
            "outputs": [
                {
                    "id": 139733942557008, 
                    "index": 0, 
                    "multi_edges": true, 
                    "position": 5, 
                    "socket_type": 3
                }, 
                {
                    "id": 139733942557072, 
                    "index": 1, 
                    "multi_edges": true, 
                    "position": 8, 
                    "socket_type": 11
                }
            ], 
            "content": {
                "value": "--- RRBYBBBBRR--"
            }, 
            "op_code": 4
        }, 
        {
            "id": 139733942556944, 
            "title": "String", 
            "pos_x": 1266.1254882812495, 
            "pos_y": -57.97607421875, 
            "inputs": [], 
            "outputs": [
                {
                    "id": 139733942557200, 
                    "index": 0, 
                    "multi_edges": true, 
                    "position": 5, 
                    "socket_type": 3
                }, 
                {
                    "id": 139733942557264, 
                    "index": 1, 
                    "multi_edges": true, 
                    "position": 8, 
                    "socket_type": 11
                }
            ], 
            "content": {
                "value": "-- BBBBBBBBBB   "
            }, 
            "op_code": 4
        }, 
        {
            "id": 139733942557136, 
            "title": "String", 
            "pos_x": 1268.6254882812495, 
            "pos_y": 123.27392578125045, 
            "inputs": [], 
            "outputs": [
                {
                    "id": 139733942557392, 
                    "index": 0, 
                    "multi_edges": true, 
                    "position": 5, 
                    "socket_type": 3
                }, 
                {
                    "id": 139733942557456, 
                    "index": 1, 
                    "multi_edges": true, 
                    "position": 8, 
                    "socket_type": 11
                }
            ], 
            "content": {
                "value": "HHBBB      BBB  "
            }, 
            "op_code": 4
        }, 
        {
            "id": 139733942557328, 
            "title": "String", 
            "pos_x": 1266.1254882812495, 
            "pos_y": 3.2739257812504547, 
            "inputs": [], 
            "outputs": [
                {
                    "id": 139733942557584, 
                    "index": 0, 
                    "multi_edges": true, 
                    "position": 5, 
                    "socket_type": 3
                }, 
                {
                    "id": 139733942557648, 
                    "index": 1, 
                    "multi_edges": true, 
                    "position": 8, 
                    "socket_type": 11
                }
            ], 
            "content": {
                "value": "  BBBBBBBBBBBB  "
            }, 
            "op_code": 4
        }, 
        {
            "id": 139733942557520, 
            "title": "String", 
            "pos_x": 1267.3754882812495, 
            "pos_y": 67.02392578125045, 
            "inputs": [], 
            "outputs": [
                {
                    "id": 139733942557776, 
                    "index": 0, 
                    "multi_edges": true, 
                    "position": 5, 
                    "socket_type": 3
                }, 
                {
                    "id": 139733942557840, 
                    "index": 1, 
                    "multi_edges": true, 
                    "position": 8, 
                    "socket_type": 11
                }
            ], 
            "content": {
                "value": " BBBBB    BBBB  "
            }, 
            "op_code": 4
        }, 
        {
            "id": 139733942557712, 
            "title": "String", 
            "pos_x": 1266.1254882812495, 
            "pos_y": 180.77392578125045, 
            "inputs": [], 
            "outputs": [
                {
                    "id": 139733942557968, 
                    "index": 0, 
                    "multi_edges": true, 
                    "position": 5, 
                    "socket_type": 3
                }, 
                {
                    "id": 139733942558032, 
                    "index": 1, 
                    "multi_edges": true, 
                    "position": 8, 
                    "socket_type": 11
                }
            ], 
            "content": {
                "value": "HHHH       HHHH "
            }, 
            "op_code": 4
        }, 
        {
            "id": 139733942557904, 
            "title": "String", 
            "pos_x": 1263.0004882812495, 
            "pos_y": 247.64892578125045, 
            "inputs": [], 
            "outputs": [
                {
                    "id": 139733942558160, 
                    "index": 0, 
                    "multi_edges": true, 
                    "position": 5, 
                    "socket_type": 3
                }, 
                {
                    "id": 139733942558224, 
                    "index": 1, 
                    "multi_edges": true, 
                    "position": 8, 
                    "socket_type": 11
                }
            ], 
            "content": {
                "value": " HHHHH     HHHHH"
            }, 
            "op_code": 4
        }, 
        {
            "id": 139733942558096, 
            "title": "[List]", 
            "pos_x": 1576.7973632812495, 
            "pos_y": -493.5854492187502, 
            "inputs": [
                {
                    "id": 139733942558352, 
                    "index": 0, 
                    "multi_edges": false, 
                    "position": 2, 
                    "socket_type": 1
                }, 
                {
                    "id": 139733942558416, 
                    "index": 1, 
                    "multi_edges": false, 
                    "position": 2, 
                    "socket_type": 1
                }, 
                {
                    "id": 139733942558480, 
                    "index": 2, 
                    "multi_edges": false, 
                    "position": 2, 
                    "socket_type": 1
                }, 
                {
                    "id": 139733942558544, 
                    "index": 3, 
                    "multi_edges": false, 
                    "position": 2, 
                    "socket_type": 1
                }, 
                {
                    "id": 139733942558608, 
                    "index": 4, 
                    "multi_edges": false, 
                    "position": 2, 
                    "socket_type": 1
                }, 
                {
                    "id": 139733942558672, 
                    "index": 5, 
                    "multi_edges": false, 
                    "position": 2, 
                    "socket_type": 1
                }, 
                {
                    "id": 139733663887440, 
                    "index": 6, 
                    "multi_edges": false, 
                    "position": 2, 
                    "socket_type": 1
                }, 
                {
                    "id": 139733663887504, 
                    "index": 7, 
                    "multi_edges": false, 
                    "position": 2, 
                    "socket_type": 1
                }, 
                {
                    "id": 139733663887568, 
                    "index": 8, 
                    "multi_edges": false, 
                    "position": 2, 
                    "socket_type": 1
                }, 
                {
                    "id": 139733663887632, 
                    "index": 9, 
                    "multi_edges": false, 
                    "position": 2, 
                    "socket_type": 1
                }
            ], 
            "outputs": [
                {
                    "id": 139733663887696, 
                    "index": 0, 
                    "multi_edges": true, 
                    "position": 5, 
                    "socket_type": 3
                }
            ], 
            "content": {
                "value": ""
            }, 
            "op_code": 5
        }, 
        {
            "id": 139733663888144, 
            "title": "[List]", 
            "pos_x": 1903.625488281249, 
            "pos_y": -109.85107421875, 
            "inputs": [
                {
                    "id": 139733663888272, 
                    "index": 0, 
                    "multi_edges": false, 
                    "position": 2, 
                    "socket_type": 1
                }, 
                {
                    "id": 139733663888336, 
                    "index": 1, 
                    "multi_edges": false, 
                    "position": 2, 
                    "socket_type": 1
                }, 
                {
                    "id": 139733663888400, 
                    "index": 2, 
                    "multi_edges": false, 
                    "position": 2, 
                    "socket_type": 1
                }, 
                {
                    "id": 139733663888464, 
                    "index": 3, 
                    "multi_edges": false, 
                    "position": 2, 
                    "socket_type": 1
                }, 
                {
                    "id": 139733663888528, 
                    "index": 4, 
                    "multi_edges": false, 
                    "position": 2, 
                    "socket_type": 1
                }, 
                {
                    "id": 139733663888592, 
                    "index": 5, 
                    "multi_edges": false, 
                    "position": 2, 
                    "socket_type": 1
                }, 
                {
                    "id": 139733663888656, 
                    "index": 6, 
                    "multi_edges": false, 
                    "position": 2, 
                    "socket_type": 1
                }, 
                {
                    "id": 139733663888720, 
                    "index": 7, 
                    "multi_edges": false, 
                    "position": 2, 
                    "socket_type": 1
                }, 
                {
                    "id": 139733663888784, 
                    "index": 8, 
                    "multi_edges": false, 
                    "position": 2, 
                    "socket_type": 1
                }, 
                {
                    "id": 139733663888848, 
                    "index": 9, 
                    "multi_edges": false, 
                    "position": 2, 
                    "socket_type": 1
                }
            ], 
            "outputs": [
                {
                    "id": 139733663888912, 
                    "index": 0, 
                    "multi_edges": true, 
                    "position": 5, 
                    "socket_type": 3
                }
            ], 
            "content": {
                "value": ""
            }, 
            "op_code": 5
        }, 
        {
            "id": 139733662871056, 
            "title": "Add", 
            "pos_x": 1790.1723632812493, 
            "pos_y": -490.6791992187502, 
            "inputs": [
                {
                    "id": 139733650710160, 
                    "index": 0, 
                    "multi_edges": false, 
                    "position": 2, 
                    "socket_type": 2
                }, 
                {
                    "id": 139733650710224, 
                    "index": 1, 
                    "multi_edges": false, 
                    "position": 2, 
                    "socket_type": 2
                }
            ], 
            "outputs": [
                {
                    "id": 139733650710288, 
                    "index": 0, 
                    "multi_edges": true, 
                    "position": 5, 
                    "socket_type": 1
                }
            ], 
            "content": {}, 
            "op_code": 60
        }, 
        {
            "id": 140658441043280, 
            "title": "Print", 
            "pos_x": 702.9296875, 
            "pos_y": -394.8749999999998, 
            "inputs": [
                {
                    "id": 140658441048784, 
                    "index": 0, 
                    "multi_edges": false, 
                    "position": 2, 
                    "socket_type": 1
                }, 
                {
                    "id": 140658441048848, 
                    "index": 1, 
                    "multi_edges": false, 
                    "position": 2, 
                    "socket_type": 3
                }, 
                {
                    "id": 140658441048912, 
                    "index": 2, 
                    "multi_edges": false, 
                    "position": 2, 
                    "socket_type": 3
                }
            ], 
            "outputs": [], 
            "content": {
                "value": "Terminal:1"
            }, 
            "op_code": 3
        }, 
        {
            "id": 139979540341584, 
            "title": "{Dict}", 
            "pos_x": 469.7499999999999, 
            "pos_y": -620.9375000000001, 
            "inputs": [
                {
                    "id": 139979540341712, 
                    "index": 0, 
                    "multi_edges": false, 
                    "position": 2, 
                    "socket_type": 2
                }, 
                {
                    "id": 139979540341776, 
                    "index": 1, 
                    "multi_edges": false, 
                    "position": 2, 
                    "socket_type": 1
                }, 
                {
                    "id": 139979540341840, 
                    "index": 2, 
                    "multi_edges": false, 
                    "position": 2, 
                    "socket_type": 2
                }, 
                {
                    "id": 139979540341904, 
                    "index": 3, 
                    "multi_edges": false, 
                    "position": 2, 
                    "socket_type": 1
                }, 
                {
                    "id": 139979540341968, 
                    "index": 4, 
                    "multi_edges": false, 
                    "position": 2, 
                    "socket_type": 2
                }, 
                {
                    "id": 139979540342032, 
                    "index": 5, 
                    "multi_edges": false, 
                    "position": 2, 
                    "socket_type": 1
                }, 
                {
                    "id": 139979540342096, 
                    "index": 6, 
                    "multi_edges": false, 
                    "position": 2, 
                    "socket_type": 2
                }, 
                {
                    "id": 139979540342160, 
                    "index": 7, 
                    "multi_edges": false, 
                    "position": 2, 
                    "socket_type": 1
                }, 
                {
                    "id": 139979540342224, 
                    "index": 8, 
                    "multi_edges": false, 
                    "position": 2, 
                    "socket_type": 2
                }, 
                {
                    "id": 139979540342288, 
                    "index": 9, 
                    "multi_edges": false, 
                    "position": 2, 
                    "socket_type": 1
                }, 
                {
                    "id": 139979540342352, 
                    "index": 10, 
                    "multi_edges": false, 
                    "position": 2, 
                    "socket_type": 2
                }, 
                {
                    "id": 139979540342416, 
                    "index": 11, 
                    "multi_edges": false, 
                    "position": 2, 
                    "socket_type": 1
                }
            ], 
            "outputs": [
                {
                    "id": 139979540342480, 
                    "index": 0, 
                    "multi_edges": true, 
                    "position": 5, 
                    "socket_type": 3
                }
            ], 
            "content": {
                "value": ""
            }, 
            "op_code": 6
        }, 
        {
            "id": 139979540341648, 
            "title": "String", 
            "pos_x": -555.0, 
            "pos_y": -643.5, 
            "inputs": [], 
            "outputs": [
                {
                    "id": 139979540342672, 
                    "index": 0, 
                    "multi_edges": true, 
                    "position": 5, 
                    "socket_type": 3
                }, 
                {
                    "id": 139979540342736, 
                    "index": 1, 
                    "multi_edges": true, 
                    "position": 8, 
                    "socket_type": 11
                }
            ], 
            "content": {
                "value": "R"
            }, 
            "op_code": 4
        }, 
        {
            "id": 139979540343440, 
            "title": "Color", 
            "pos_x": -220.25, 
            "pos_y": -636.0, 
            "inputs": [
                {
                    "id": 139979539708304, 
                    "index": 0, 
                    "multi_edges": false, 
                    "position": 2, 
                    "socket_type": 1
                }, 
                {
                    "id": 139979539708368, 
                    "index": 1, 
                    "multi_edges": false, 
                    "position": 2, 
                    "socket_type": 1
                }, 
                {
                    "id": 139979539708432, 
                    "index": 2, 
                    "multi_edges": false, 
                    "position": 2, 
                    "socket_type": 1
                }
            ], 
            "outputs": [
                {
                    "id": 139979539708496, 
                    "index": 0, 
                    "multi_edges": true, 
                    "position": 5, 
                    "socket_type": 3
                }
            ], 
            "content": {
                "value": [
                    255, 
                    0, 
                    4
                ]
            }, 
            "op_code": 8
        }, 
        {
            "id": 139979781243664, 
            "title": "{Dict}", 
            "pos_x": 516.125, 
            "pos_y": -117.37500000000003, 
            "inputs": [
                {
                    "id": 139979781243792, 
                    "index": 0, 
                    "multi_edges": false, 
                    "position": 2, 
                    "socket_type": 2
                }, 
                {
                    "id": 139979781243728, 
                    "index": 1, 
                    "multi_edges": false, 
                    "position": 2, 
                    "socket_type": 1
                }, 
                {
                    "id": 139979781243920, 
                    "index": 2, 
                    "multi_edges": false, 
                    "position": 2, 
                    "socket_type": 2
                }, 
                {
                    "id": 139979781243856, 
                    "index": 3, 
                    "multi_edges": false, 
                    "position": 2, 
                    "socket_type": 1
                }, 
                {
                    "id": 139979781244048, 
                    "index": 4, 
                    "multi_edges": false, 
                    "position": 2, 
                    "socket_type": 2
                }, 
                {
                    "id": 139979781243984, 
                    "index": 5, 
                    "multi_edges": false, 
                    "position": 2, 
                    "socket_type": 1
                }, 
                {
                    "id": 139979781244112, 
                    "index": 6, 
                    "multi_edges": false, 
                    "position": 2, 
                    "socket_type": 2
                }, 
                {
                    "id": 139979539709776, 
                    "index": 7, 
                    "multi_edges": false, 
                    "position": 2, 
                    "socket_type": 1
                }, 
                {
                    "id": 139979539709648, 
                    "index": 8, 
                    "multi_edges": false, 
                    "position": 2, 
                    "socket_type": 2
                }, 
                {
                    "id": 139979539709840, 
                    "index": 9, 
                    "multi_edges": false, 
                    "position": 2, 
                    "socket_type": 1
                }, 
                {
                    "id": 139979539709904, 
                    "index": 10, 
                    "multi_edges": false, 
                    "position": 2, 
                    "socket_type": 2
                }, 
                {
                    "id": 139979522265168, 
                    "index": 11, 
                    "multi_edges": false, 
                    "position": 2, 
                    "socket_type": 1
                }
            ], 
            "outputs": [
                {
                    "id": 139979522265232, 
                    "index": 0, 
                    "multi_edges": true, 
                    "position": 5, 
                    "socket_type": 3
                }
            ], 
            "content": {
                "value": ""
            }, 
            "op_code": 6
        }, 
        {
            "id": 139979522265296, 
            "title": "String", 
            "pos_x": -270.25, 
            "pos_y": -48.5, 
            "inputs": [], 
            "outputs": [
                {
                    "id": 139979522265424, 
                    "index": 0, 
                    "multi_edges": true, 
                    "position": 5, 
                    "socket_type": 3
                }, 
                {
                    "id": 139979522265488, 
                    "index": 1, 
                    "multi_edges": true, 
                    "position": 8, 
                    "socket_type": 11
                }
            ], 
            "content": {
                "value": "\u2588"
            }, 
            "op_code": 4
        }, 
        {
            "id": 139979522265680, 
            "title": "String", 
            "pos_x": -403.0, 
            "pos_y": -515.5, 
            "inputs": [], 
            "outputs": [
                {
                    "id": 139979522265808, 
                    "index": 0, 
                    "multi_edges": true, 
                    "position": 5, 
                    "socket_type": 3
                }, 
                {
                    "id": 139979522266000, 
                    "index": 1, 
                    "multi_edges": true, 
                    "position": 8, 
                    "socket_type": 11
                }
            ], 
            "content": {
                "value": "H"
            }, 
            "op_code": 4
        }, 
        {
            "id": 139979522265872, 
            "title": "Color", 
            "pos_x": -322.75, 
            "pos_y": -436.75, 
            "inputs": [
                {
                    "id": 139979522266128, 
                    "index": 0, 
                    "multi_edges": false, 
                    "position": 2, 
                    "socket_type": 1
                }, 
                {
                    "id": 139979522266064, 
                    "index": 1, 
                    "multi_edges": false, 
                    "position": 2, 
                    "socket_type": 1
                }, 
                {
                    "id": 139979522266256, 
                    "index": 2, 
                    "multi_edges": false, 
                    "position": 2, 
                    "socket_type": 1
                }
            ], 
            "outputs": [
                {
                    "id": 139979522266192, 
                    "index": 0, 
                    "multi_edges": true, 
                    "position": 5, 
                    "socket_type": 3
                }
            ], 
            "content": {
                "value": [
                    134, 
                    106, 
                    66
                ]
            }, 
            "op_code": 8
        }, 
        {
            "id": 139979522266512, 
            "title": "String", 
            "pos_x": -227.0, 
            "pos_y": -366.5, 
            "inputs": [], 
            "outputs": [
                {
                    "id": 139979522266640, 
                    "index": 0, 
                    "multi_edges": true, 
                    "position": 5, 
                    "socket_type": 3
                }, 
                {
                    "id": 139979522266576, 
                    "index": 1, 
                    "multi_edges": true, 
                    "position": 8, 
                    "socket_type": 11
                }
            ], 
            "content": {
                "value": "-"
            }, 
            "op_code": 4
        }, 
        {
            "id": 139979522266768, 
            "title": "Color", 
            "pos_x": 69.5, 
            "pos_y": -429.0, 
            "inputs": [
                {
                    "id": 139979522266896, 
                    "index": 0, 
                    "multi_edges": false, 
                    "position": 2, 
                    "socket_type": 1
                }, 
                {
                    "id": 139979522266832, 
                    "index": 1, 
                    "multi_edges": false, 
                    "position": 2, 
                    "socket_type": 1
                }, 
                {
                    "id": 139979522267024, 
                    "index": 2, 
                    "multi_edges": false, 
                    "position": 2, 
                    "socket_type": 1
                }
            ], 
            "outputs": [
                {
                    "id": 139979522266960, 
                    "index": 0, 
                    "multi_edges": true, 
                    "position": 5, 
                    "socket_type": 3
                }
            ], 
            "content": {
                "value": [
                    255, 
                    193, 
                    69
                ]
            }, 
            "op_code": 8
        }, 
        {
            "id": 140600184245968, 
            "title": "String", 
            "pos_x": -373.4999999999998, 
            "pos_y": -276.6874999999999, 
            "inputs": [], 
            "outputs": [
                {
                    "id": 140600184246096, 
                    "index": 0, 
                    "multi_edges": true, 
                    "position": 5, 
                    "socket_type": 3
                }, 
                {
                    "id": 140600184246160, 
                    "index": 1, 
                    "multi_edges": true, 
                    "position": 8, 
                    "socket_type": 11
                }
            ], 
            "content": {
                "value": "0"
            }, 
            "op_code": 4
        }, 
        {
            "id": 140600221057808, 
            "title": "Color", 
            "pos_x": -270.0, 
            "pos_y": -203.0, 
            "inputs": [
                {
                    "id": 140600221057936, 
                    "index": 0, 
                    "multi_edges": false, 
                    "position": 2, 
                    "socket_type": 1
                }, 
                {
                    "id": 140600221058000, 
                    "index": 1, 
                    "multi_edges": false, 
                    "position": 2, 
                    "socket_type": 1
                }, 
                {
                    "id": 140600221058064, 
                    "index": 2, 
                    "multi_edges": false, 
                    "position": 2, 
                    "socket_type": 1
                }
            ], 
            "outputs": [
                {
                    "id": 140600221058128, 
                    "index": 0, 
                    "multi_edges": true, 
                    "position": 5, 
                    "socket_type": 3
                }
            ], 
            "content": {
                "value": [
                    0, 
                    0, 
                    0
                ]
            }, 
            "op_code": 8
        }, 
        {
            "id": 140110445572624, 
            "title": "String", 
            "pos_x": -509.625, 
            "pos_y": 49.8125, 
            "inputs": [], 
            "outputs": [
                {
                    "id": 140110445572752, 
                    "index": 0, 
                    "multi_edges": true, 
                    "position": 5, 
                    "socket_type": 3
                }, 
                {
                    "id": 140110445572816, 
                    "index": 1, 
                    "multi_edges": true, 
                    "position": 8, 
                    "socket_type": 11
                }
            ], 
            "content": {
                "value": "B"
            }, 
            "op_code": 4
        }, 
        {
            "id": 140110445573456, 
            "title": "Color", 
            "pos_x": -396.75, 
            "pos_y": 133.18749999999994, 
            "inputs": [
                {
                    "id": 140110445573584, 
                    "index": 0, 
                    "multi_edges": false, 
                    "position": 2, 
                    "socket_type": 1
                }, 
                {
                    "id": 140110445573648, 
                    "index": 1, 
                    "multi_edges": false, 
                    "position": 2, 
                    "socket_type": 1
                }, 
                {
                    "id": 140110445573712, 
                    "index": 2, 
                    "multi_edges": false, 
                    "position": 2, 
                    "socket_type": 1
                }
            ], 
            "outputs": [
                {
                    "id": 140110445573776, 
                    "index": 0, 
                    "multi_edges": true, 
                    "position": 5, 
                    "socket_type": 3
                }
            ], 
            "content": {
                "value": [
                    0, 
                    85, 
                    255
                ]
            }, 
            "op_code": 8
        }, 
        {
            "id": 140110562612048, 
            "title": "String", 
            "pos_x": -183.5, 
            "pos_y": 133.25, 
            "inputs": [], 
            "outputs": [
                {
                    "id": 140110562612240, 
                    "index": 0, 
                    "multi_edges": true, 
                    "position": 5, 
                    "socket_type": 3
                }, 
                {
                    "id": 140110562612496, 
                    "index": 1, 
                    "multi_edges": true, 
                    "position": 8, 
                    "socket_type": 11
                }
            ], 
            "content": {
                "value": "Y"
            }, 
            "op_code": 4
        }, 
        {
            "id": 140110562612368, 
            "title": "Color", 
            "pos_x": 69.99999999999994, 
            "pos_y": 178.74999999999994, 
            "inputs": [
                {
                    "id": 140110562612112, 
                    "index": 0, 
                    "multi_edges": false, 
                    "position": 2, 
                    "socket_type": 1
                }, 
                {
                    "id": 140110562612432, 
                    "index": 1, 
                    "multi_edges": false, 
                    "position": 2, 
                    "socket_type": 1
                }, 
                {
                    "id": 140110562612176, 
                    "index": 2, 
                    "multi_edges": false, 
                    "position": 2, 
                    "socket_type": 1
                }
            ], 
            "outputs": [
                {
                    "id": 140110445575184, 
                    "index": 0, 
                    "multi_edges": true, 
                    "position": 5, 
                    "socket_type": 3
                }
            ], 
            "content": {
                "value": [
                    255, 
                    255, 
                    0
                ]
            }, 
            "op_code": 8
        }
    ], 
    "edges": [
        {
            "id": 139733942558288, 
            "edge_type": 1, 
            "start": 139733942462288, 
            "end": 139733942558352
        }, 
        {
            "id": 139733663887760, 
            "edge_type": 1, 
            "start": 139733942463568, 
            "end": 139733942558416
        }, 
        {
            "id": 139733663887824, 
            "edge_type": 1, 
            "start": 139733942554832, 
            "end": 139733942558480
        }, 
        {
            "id": 139733663887888, 
            "edge_type": 1, 
            "start": 139733942555024, 
            "end": 139733942558544
        }, 
        {
            "id": 139733663887952, 
            "edge_type": 1, 
            "start": 139733942555216, 
            "end": 139733942558608
        }, 
        {
            "id": 139733663888016, 
            "edge_type": 1, 
            "start": 139733942555408, 
            "end": 139733942558672
        }, 
        {
            "id": 139733663888080, 
            "edge_type": 1, 
            "start": 139733942555600, 
            "end": 139733663887440
        }, 
        {
            "id": 139733662870480, 
            "edge_type": 1, 
            "start": 139733942555792, 
            "end": 139733663888272
        }, 
        {
            "id": 139733662870608, 
            "edge_type": 1, 
            "start": 139733942555984, 
            "end": 139733663888336
        }, 
        {
            "id": 139733662870224, 
            "edge_type": 1, 
            "start": 139733942557008, 
            "end": 139733663888400
        }, 
        {
            "id": 139733662870160, 
            "edge_type": 1, 
            "start": 139733942557200, 
            "end": 139733663888464
        }, 
        {
            "id": 139733662870416, 
            "edge_type": 1, 
            "start": 139733942557584, 
            "end": 139733663888528
        }, 
        {
            "id": 139733662870736, 
            "edge_type": 1, 
            "start": 139733942557776, 
            "end": 139733663888592
        }, 
        {
            "id": 139733662870864, 
            "edge_type": 1, 
            "start": 139733942557392, 
            "end": 139733663888656
        }, 
        {
            "id": 139733662870800, 
            "edge_type": 1, 
            "start": 139733942557968, 
            "end": 139733663888720
        }, 
        {
            "id": 139733662870928, 
            "edge_type": 1, 
            "start": 139733942558160, 
            "end": 139733663888784
        }, 
        {
            "id": 139733650710352, 
            "edge_type": 1, 
            "start": 139733663887696, 
            "end": 139733650710160
        }, 
        {
            "id": 139733650710480, 
            "edge_type": 1, 
            "start": 139733663888912, 
            "end": 139733650710224
        }, 
        {
            "id": 140658441048720, 
            "edge_type": 1, 
            "start": 139733650710288, 
            "end": 140658441048784
        }, 
        {
            "id": 139979540343312, 
            "edge_type": 1, 
            "start": 139979540342672, 
            "end": 139979540341712
        }, 
        {
            "id": 139979539709584, 
            "edge_type": 1, 
            "start": 139979539708496, 
            "end": 139979540341776
        }, 
        {
            "id": 139979539709712, 
            "edge_type": 1, 
            "start": 139979540342480, 
            "end": 140658441048848
        }, 
        {
            "id": 139979781243600, 
            "edge_type": 1, 
            "start": 139979522265232, 
            "end": 140658441048912
        }, 
        {
            "id": 139979762473616, 
            "edge_type": 1, 
            "start": 139979540342672, 
            "end": 139979781243792
        }, 
        {
            "id": 139979522265360, 
            "edge_type": 1, 
            "start": 139979522265424, 
            "end": 139979781243728
        }, 
        {
            "id": 139979522265744, 
            "edge_type": 1, 
            "start": 139979522265808, 
            "end": 139979540341840
        }, 
        {
            "id": 139979522265936, 
            "edge_type": 1, 
            "start": 139979522266192, 
            "end": 139979540341904
        }, 
        {
            "id": 139979522266384, 
            "edge_type": 1, 
            "start": 139979522265808, 
            "end": 139979781243920
        }, 
        {
            "id": 139979522266320, 
            "edge_type": 1, 
            "start": 139979522265424, 
            "end": 139979781243856
        }, 
        {
            "id": 139979522266448, 
            "edge_type": 1, 
            "start": 139979522266640, 
            "end": 139979540341968
        }, 
        {
            "id": 139979522266704, 
            "edge_type": 1, 
            "start": 139979522266960, 
            "end": 139979540342032
        }, 
        {
            "id": 139979522267152, 
            "edge_type": 1, 
            "start": 139979522266640, 
            "end": 139979781244048
        }, 
        {
            "id": 139979522267088, 
            "edge_type": 1, 
            "start": 139979522265424, 
            "end": 139979781243984
        }, 
        {
            "id": 140600035255760, 
            "edge_type": 1, 
            "start": 140600184246096, 
            "end": 139979540342096
        }, 
        {
            "id": 140600035256592, 
            "edge_type": 1, 
            "start": 140600221058128, 
            "end": 139979540342160
        }, 
        {
            "id": 140600035256720, 
            "edge_type": 1, 
            "start": 140600184246096, 
            "end": 139979781244112
        }, 
        {
            "id": 140600035256528, 
            "edge_type": 1, 
            "start": 139979522265424, 
            "end": 139979539709776
        }, 
        {
            "id": 140110445574864, 
            "edge_type": 1, 
            "start": 140110445572752, 
            "end": 139979540342224
        }, 
        {
            "id": 140110562611984, 
            "edge_type": 1, 
            "start": 140110445573776, 
            "end": 139979540342288
        }, 
        {
            "id": 140110445574800, 
            "edge_type": 1, 
            "start": 140110445572752, 
            "end": 139979539709648
        }, 
        {
            "id": 140110445574992, 
            "edge_type": 1, 
            "start": 139979522265424, 
            "end": 139979539709840
        }, 
        {
            "id": 140110445575888, 
            "edge_type": 1, 
            "start": 140110562612240, 
            "end": 139979540342352
        }, 
        {
            "id": 140110445576016, 
            "edge_type": 1, 
            "start": 140110445575184, 
            "end": 139979540342416
        }, 
        {
            "id": 140110445575120, 
            "edge_type": 1, 
            "start": 140110562612240, 
            "end": 139979539709904
        }, 
        {
            "id": 140110445574928, 
            "edge_type": 1, 
            "start": 139979522265424, 
            "end": 139979522265168
        }
    ]
}